<?xml version="1.0" encoding="utf-8"?>
<!-- Generator: Adobe Illustrator 19.2.0, SVG Export Plug-In . SVG Version: 6.00 Build 0)  -->
<!DOCTYPE svg PUBLIC "-//W3C//DTD SVG 1.0//EN" "http://www.w3.org/TR/2001/REC-SVG-20010904/DTD/svg10.dtd">
<svg version="1.0" xmlns="http://www.w3.org/2000/svg" xmlns:xlink="http://www.w3.org/1999/xlink" x="0px" y="0px"
	 viewBox="0 0 32 44" enable-background="new 0 0 32 44" xml:space="preserve">
<g id="BG">
</g>
<g id="Titles_1_">
	<g id="General_2_">
	</g>
	<g id="Electronics_2_">
	</g>
	<g id="E-Commerce_2_">
	</g>
	<g id="Web_2_">
	</g>
	<g id="Location_2_">
	</g>
	<g id="Arrows_2_">
	</g>
	<g id="Weather_2_">
	</g>
	<g id="Miscellaneous_2_">
	</g>
</g>
<g id="General_1_">
</g>
<g id="Electronics_1_">
</g>
<g id="E-Commerce_1_">
</g>
<g id="Web_1_">
	<g id="Share_1_">
		<g>
			<path fill="#DD5533" d="M8,10c0.3,0,0.5-0.1,0.7-0.3L15,3.4V35c0,0.6,0.4,1,1,1s1-0.4,1-1V3.4l6.3,6.3C23.5,9.9,23.7,10,24,10
				c0.6,0,1-0.4,1-1c0-0.3-0.1-0.5-0.3-0.7l-8-8C16.5,0.1,16.3,0,16,0c-0.3,0-0.5,0.1-0.7,0.3l-8,8C7.1,8.5,7,8.7,7,9
				C7,9.6,7.4,10,8,10z M31,14H20c-0.6,0-1,0.4-1,1c0,0.6,0.4,1,1,1h10v26H2V16h10c0.6,0,1-0.4,1-1c0-0.6-0.4-1-1-1H1
				c-0.6,0-1,0.4-1,1v28c0,0.6,0.4,1,1,1h30c0.6,0,1-0.4,1-1V15C32,14.4,31.6,14,31,14z"/>
		</g>
	</g>
</g>
<g id="Location_1_">
</g>
<g id="Arrows_1_">
</g>
<g id="Weather_1_">
</g>
<g id="Miscellaneous_1_">
</g>
<g id="Calque_19">
</g>
</svg>
