<?xml version="1.0" encoding="utf-8"?>
<!-- Generator: Adobe Illustrator 19.2.1, SVG Export Plug-In . SVG Version: 6.00 Build 0)  -->
<svg version="1.1" id="General" xmlns="http://www.w3.org/2000/svg" xmlns:xlink="http://www.w3.org/1999/xlink" x="0px" y="0px"
	 viewBox="0 0 44 30" style="enable-background:new 0 0 44 30;" xml:space="preserve">
<style type="text/css">
	.st0{fill:#5F9D6E;}
</style>
<g id="Checkmark_1_x40_2x.png">
	<g>
		<path class="st0" d="M44,1c0-0.6-0.4-1-1-1c-0.3,0-0.5,0.1-0.7,0.3l0,0L16,27.6L1.7,13.3C1.5,13.1,1.3,13,1,13c-0.6,0-1,0.4-1,1
			c0,0.3,0.1,0.5,0.3,0.7l15,15c0.2,0.2,0.4,0.3,0.7,0.3c0.3,0,0.5-0.1,0.7-0.3l0,0l27-28l0,0C43.9,1.5,44,1.3,44,1z"/>
	</g>
</g>
</svg>
